P8105 Homework 6 Solutions
…
The residuals seem to have a fairly consistent distribution, so we will continue with the linear regression model.

modelr::add_predictions(birthweight_df, fit)

## # A tibble: 4,342 x 21
##    babysex bhead blength   bwt delwt fincome frace gaweeks malform menarche
##    <fct>   <dbl>   <dbl> <dbl> <dbl>   <dbl> <fct>   <dbl> <fct>      <dbl>
##  1 Female     34      51  3629   177      35 White    39.9 Absent        13
##  2 Male       34      48  3062   156      65 Black    25.9 Absent        14
##  3 Female     36      50  3345   148      85 White    39.9 Absent        12
##  4 Male       34      52  3062   157      55 White    40   Absent        14
##  5 Female     34      52  3374   156       5 White    41.6 Absent        13
##  6 Male       33      52  3374   129      55 White    40.7 Absent        12
##  7 Female     33      46  2523   126      96 Black    40.3 Absent        14
##  8 Female     33      49  2778   140       5 White    37.4 Absent        12
##  9 Male       36      52  3515   146      85 White    40.3 Absent        11
## 10 Male       33      50  3459   169      75 Black    40.7 Absent        12
## #  with 4,332 more rows, and 11 more variables: mheight <dbl>, momage <dbl>,
## #   mrace <fct>, parity <dbl>, pnumlbw <dbl>, pnumsga <dbl>, ppbmi <dbl>,
## #   ppwt <dbl>, smoken <dbl>, wtgain <dbl>, pred <dbl>
…
Predictors

modelr::add_predictions(birthweight_df, fit_2)

## # A tibble: 4,342 x 21
##    babysex bhead blength   bwt delwt fincome frace gaweeks malform menarche
##    <fct>   <dbl>   <dbl> <dbl> <dbl>   <dbl> <fct>   <dbl> <fct>      <dbl>
##  1 Female     34      51  3629   177      35 White    39.9 Absent        13
##  2 Male       34      48  3062   156      65 Black    25.9 Absent        14
##  3 Female     36      50  3345   148      85 White    39.9 Absent        12
##  4 Male       34      52  3062   157      55 White    40   Absent        14
##  5 Female     34      52  3374   156       5 White    41.6 Absent        13
##  6 Male       33      52  3374   129      55 White    40.7 Absent        12
##  7 Female     33      46  2523   126      96 Black    40.3 Absent        14
##  8 Female     33      49  2778   140       5 White    37.4 Absent        12
##  9 Male       36      52  3515   146      85 White    40.3 Absent        11
## 10 Male       33      50  3459   169      75 Black    40.7 Absent        12
## #  with 4,332 more rows, and 11 more variables: mheight <dbl>, momage <dbl>,
## #   mrace <fct>, parity <dbl>, pnumlbw <dbl>, pnumsga <dbl>, ppbmi <dbl>,
## #   ppwt <dbl>, smoken <dbl>, wtgain <dbl>, pred <dbl>
…
Predictors

modelr::add_predictions(birthweight_df, fit_3)

## # A tibble: 4,342 x 21
##    babysex bhead blength   bwt delwt fincome frace gaweeks malform menarche
##    <fct>   <dbl>   <dbl> <dbl> <dbl>   <dbl> <fct>   <dbl> <fct>      <dbl>
##  1 Female     34      51  3629   177      35 White    39.9 Absent        13
##  2 Male       34      48  3062   156      65 Black    25.9 Absent        14
##  3 Female     36      50  3345   148      85 White    39.9 Absent        12
##  4 Male       34      52  3062   157      55 White    40   Absent        14
##  5 Female     34      52  3374   156       5 White    41.6 Absent        13
##  6 Male       33      52  3374   129      55 White    40.7 Absent        12
##  7 Female     33      46  2523   126      96 Black    40.3 Absent        14
##  8 Female     33      49  2778   140       5 White    37.4 Absent        12
##  9 Male       36      52  3515   146      85 White    40.3 Absent        11
## 10 Male       33      50  3459   169      75 Black    40.7 Absent        12
## #  with 4,332 more rows, and 11 more variables: mheight <dbl>, momage <dbl>,
## #   mrace <fct>, parity <dbl>, pnumlbw <dbl>, pnumsga <dbl>, ppbmi <dbl>,
## #   ppwt <dbl>, smoken <dbl>, wtgain <dbl>, pred <dbl>
…
Comparison using cross validation

cv_df = 
  crossv_mc(birthweight_df, 100) 

cv_df %>% pull(train) %>% .[[1]] %>% as_tibble

## # A tibble: 3,473 x 20
##    babysex bhead blength   bwt delwt fincome frace gaweeks malform menarche
##    <fct>   <dbl>   <dbl> <dbl> <dbl>   <dbl> <fct>   <dbl> <fct>      <dbl>
##  1 Female     34      51  3629   177      35 White    39.9 Absent        13
##  2 Male       34      48  3062   156      65 Black    25.9 Absent        14
##  3 Female     36      50  3345   148      85 White    39.9 Absent        12
##  4 Male       34      52  3062   157      55 White    40   Absent        14
##  5 Female     34      52  3374   156       5 White    41.6 Absent        13
##  6 Female     33      46  2523   126      96 Black    40.3 Absent        14
##  7 Male       36      52  3515   146      85 White    40.3 Absent        11
##  8 Male       33      50  3459   169      75 Black    40.7 Absent        12
##  9 Female     35      51  3317   130      55 White    43.4 Absent        13
## 10 Male       35      51  3459   146      55 White    39.4 Absent        12
## #  with 3,463 more rows, and 10 more variables: mheight <dbl>, momage <dbl>,
## #   mrace <fct>, parity <dbl>, pnumlbw <dbl>, pnumsga <dbl>, ppbmi <dbl>,
## #   ppwt <dbl>, smoken <dbl>, wtgain <dbl>
…
boot_straps = 
  data_frame(
    strap_number = 1:5000,
    strap_sample = rerun(5000, boot_sample(weather_df))
  )

## Warning: `data_frame()` is deprecated as of tibble 1.1.0.
## Please use `tibble()` instead.
## This warning is displayed once every 8 hours.
## Call `lifecycle::last_warnings()` to see where this warning was generated.

boot_straps

## # A tibble: 5,000 x 2
##    strap_number strap_sample      
##           <int> <list>            
##  1            1 <tibble [365  6]>
##  2            2 <tibble [365  6]>
##  3            3 <tibble [365  6]>
##  4            4 <tibble [365  6]>
##  5            5 <tibble [365  6]>
##  6            6 <tibble [365  6]>
##  7            7 <tibble [365  6]>
##  8            8 <tibble [365  6]>
##  9            9 <tibble [365  6]>
## 10           10 <tibble [365  6]>
## #  with 4,990 more rows
…
## Warning: unnest() has a new interface. See ?unnest for details.
## Try `df %>% unnest(c(tidy_results, glance_results))`, with `mutate()` if needed

bootstrap_result

## # A tibble: 5,000 x 2
##       r2 ln_b0b1
##    <dbl>   <dbl>
##  1 0.913    1.99
##  2 0.902    2.04
##  3 0.904    2.01
##  4 0.920    1.99
##  5 0.904    2.02
##  6 0.917    2.02
##  7 0.919    2.02
##  8 0.915    2.03
##  9 0.906    2.03
## 10 0.915    1.99
## #  with 4,990 more rows
…
